# poly_uma API

> UMA Optimistic Oracle 链上事件同步与查询服务。实时监听 Polygon 上 UMA OO 合约事件，提供 HTTP + WebSocket 接口。

## 基本信息

- **Base URL**: `http://<host>:8011`
- **WebSocket URL**: 直连使用 `ws://<host>:8011`；只有前置代理已配置 TLS 时才使用 `wss://<host>`
- **数据格式**: JSON
- **字符编码**: UTF-8

## 关键约定（客户端必读）

### 数据时效性

- **默认只读最近 2 小时内存**（`source=memory`）。`from_ts` 早于 2h 窗口起点时会被自动钳位到窗口起点，不会报错，但返回数据可能不完整。
- 查询 **2 小时以前的数据**，必须传 `source=sqlite`。
- 内存数据有 **2 秒缓存**（列表接口）和 **300 毫秒缓存**（`/proposed/latest`），相同参数的并发请求共享同一份结果，因此数据可能有最多 2 秒的缓存延迟。
- HTTP 分页在单次游标消费中稳定；同时使用 WebSocket、HTTP 补拉和重连恢复时，客户端必须按 `(event_type, transaction_hash, log_index)` 幂等去重。
- `source=sqlite` 会读取全量事件库，适合低频历史查询和故障补拉，不应作为高频实时轮询方式；实时消费优先使用 WebSocket 或 `source=memory`。

### 游标分页（cursor_id）

**编码规则**：`cursor_id = unix_timestamp * 1000 + 秒内序号(0-999)`

- `next_cursor` 是字符串类型的 cursor_id，直接回传给下一页的 `cursor` 参数。
- 当 `next_cursor` 为空字符串 `""` 时，表示没有更多数据。
- 当本页条数刚好等于 `limit` 时，服务可能返回非空 `next_cursor`，即使下一页实际为空；客户端应继续请求，直到 `next_cursor=""` 或返回空页。
- 客户端可从 cursor 反推时间：`timestamp = cursor_id / 1000`。

**冷启动**：客户端只需构造 `cursor = 想要的起始时间戳 * 1000`，例如从 2 小时前开始：`cursor = (now - 7200) * 1000`。

**增量消费**：只需 `cursor` + `limit` 两个参数，无需传 `from_ts`。

### price 字段

- `price` 是经过缩放的小数字符串，**除以了 10^16**。
- 示例：链上原始值 `1000000000000000000`（1e18）→ API 返回 `"100"`。
- `"100"` = Yes，`"0"` = No，中间值代表概率百分比。

### 限流

- **全局并发上限**: 300 个同时在处理的请求（超出返回 `503`）。
- **单 IP 限速**: 60 req/s，突发上限 120（超出返回 `429`）。
- 建议客户端实现指数退避重试，遇到 `429`/`503` 时等待 1-5 秒后重试。

### 错误响应格式

所有错误统一返回 JSON：
```json
{"error": "错误描述"}
```

| HTTP 状态码 | 含义 |
|-------------|------|
| 400 | 参数错误（缺少必填参数、类型不对） |
| 404 | 路径不存在 |
| 405 | HTTP 方法不允许 |
| 429 | 单 IP 请求过快 |
| 503 | 服务暂时不可用（并发过高 / 内存副本未就绪） |
| 500 | 内部错误 |

---

## HTTP API

### GET /uma/v1/proposed

查询 propose 事件列表。

| 参数 | 类型 | 必填 | 默认值 | 说明 |
|------|------|------|--------|------|
| cursor | string | 否 | - | 上一页返回的 `next_cursor`，或冷启动构造 `起始时间戳*1000` |
| limit | int | 否 | 50 | 每页条数，范围 1-500 |
| from_ts | int64 | 否 | - | 起始 Unix 时间戳（秒），有 cursor 时可省略 |
| to_ts | int64 | 否 | - | 结束 Unix 时间戳（秒），可省略 |
| source | string | 否 | memory | `memory`（2h 内存）或 `sqlite`（全量历史） |

**响应**:
```json
{
  "data": [
    {
      "id": 42,
      "cursor_id": 1741000000003,
      "event_type": "propose",
      "transaction_hash": "0xabc...",
      "log_index": 3,
      "block_number": 68000000,
      "timestamp": 1741000000,
      "time_utc8": "2025-03-04 08:26:40",
      "condition_id": "0x1234...",
      "market_id": "112233",
      "price": "100"
    }
  ],
  "count": 1,
  "next_cursor": "1741000000003"
}
```

> `count` 是本页实际返回的条数。`next_cursor` 为空表示无下一页。

**最简调用示例**：
```bash
# 冷启动：从 1 小时前开始
curl "/uma/v1/proposed?cursor=$(( ($(date +%s) - 3600) * 1000 ))&limit=50"

# 增量：传上次的 next_cursor
curl "/uma/v1/proposed?cursor=1741000000003&limit=50"

# 不传任何参数：默认返回 2h 窗口内最早的 50 条
curl "/uma/v1/proposed?limit=50"
```

### GET /uma/v1/disputed

查询 dispute 事件列表。参数和响应格式与 `/proposed` 完全一致。

### GET /uma/v1/settled

查询 `resolved` 事件列表。参数和响应格式与 `/proposed` 完全一致。

> `/settled` 是历史兼容路由名，实际返回 `event_type=resolved`，不返回 `event_type=settle`。如需查询真正的 `settle` 事件，请使用 `/uma/v1/events?event_type=settle` 并同时提供 `condition_id` 或 `transaction_hash`。

### GET /uma/v1/proposed/latest

获取最新一条 propose 事件，附带 Polymarket 市场详情。

| 参数 | 类型 | 必填 | 默认值 | 说明 |
|------|------|------|--------|------|
| source | string | 否 | memory | `memory` 或 `sqlite` |

**响应**（直接返回单个对象，非数组包裹）:
```json
{
  "id": 42,
  "cursor_id": 1741000000003,
  "event_type": "propose",
  "transaction_hash": "0xabc...",
  "log_index": 3,
  "block_number": 68000000,
  "timestamp": 1741000000,
  "time_utc8": "2025-03-04 08:26:40",
  "condition_id": "0x1234...",
  "market_id": "112233",
  "price": "100",
  "market_detail": {
    "market_id": "112233",
    "slug": "will-x-happen",
    "question": "Will X happen by March 2026?",
    "description": "...",
    "end_date": "2026-03-10T00:00:00Z",
    "liquidity": "50000",
    "volume": "120000",
    "uma_resolution_status": "proposed",
    "uma_end_date": "2026-03-12T00:00:00Z"
  }
}
```

> - 无 propose 事件时返回 `null`。
> - `market_detail` 来自 Polymarket Gamma API，获取失败时该字段不存在（降级，不影响其他字段）。
> - 此接口有 300ms 缓存，高并发下可能返回稍旧的数据。

### GET /uma/v1/events

按 `condition_id` 或 `transaction_hash` 从 SQLite 精确查询事件（支持全量历史，不受 2h 内存窗口限制）。常用于调试某一条交易或某个市场的所有 OO 生命周期事件。

| 参数 | 类型 | 必填 | 默认值 | 说明 |
|------|------|------|--------|------|
| condition_id | string | 条件必填 | - | Polymarket condition ID（0x 前缀），完全匹配 |
| transaction_hash | string | 条件必填 | - | 交易哈希（0x 前缀），完全匹配 |
| event_type | string | 否 | - | 可选：`init`/`request`/`propose`/`dispute`/`resolved`/`settle`，过滤事件类型 |
| limit | int | 否 | 100 | 最大返回条数，范围 1-500 |

> `condition_id` 与 `transaction_hash` 至少传一个；同时传则为 AND 合取。

**响应**（字段含义与 `/proposed` 的 `data` 数组元素一致，按 `cursor_id` 升序返回）:
```json
{
  "data": [
    {
      "id": 42,
      "cursor_id": 1741000000003,
      "event_type": "propose",
      "transaction_hash": "0xabc...",
      "log_index": 3,
      "block_number": 68000000,
      "timestamp": 1741000000,
      "time_utc8": "2025-03-04 08:26:40",
      "condition_id": "0x1234...",
      "market_id": "112233",
      "price": "100"
    }
  ],
  "count": 1
}
```

**示例**:
```bash
# 查询某 condition 的所有 OO 事件
curl "/uma/v1/events?condition_id=0x1234..."

# 查询某交易哈希
curl "/uma/v1/events?transaction_hash=0xabc..."

# 仅查 resolved（用于获取某市场的 resolve 时间）
curl "/uma/v1/events?condition_id=0x1234...&event_type=resolved"
```

### POST /uma/v1/events/batch

按一组 `condition_id` 批量获取每个市场的生命周期状态摘要。适合上游一次询问多个 cid 的进展（"哪些已 resolved？哪些还卡在 propose？"）。

**请求 body**:
```json
{ "condition_ids": ["0xabc...", "0xdef..."] }
```

| 字段 | 类型 | 必填 | 说明 |
|------|------|------|------|
| condition_ids | string[] | 是 | cid 列表，最多 50 条，自动去重空值 |

**响应**:
```json
{
  "count": 2,
  "statuses": {
    "0xabc...": {
      "stage": "propose",
      "market_id": "1988711",
      "events": {"init": 1776226848, "propose": 1776402294},
      "events_utc8": {"init": "2026-04-15 12:20:48", "propose": "2026-04-17 13:04:54"},
      "latest_price": "100",
      "last_transaction": "0x67fd..."
    },
    "0xdef...": null
  }
}
```

- `stage`：cid 在六个事件中到达的最远阶段（生命周期序 `init < request < propose < dispute < resolved < settle`）。
- `events` / `events_utc8`：各已到达阶段的首次时间戳（秒）/ UTC+8 时间串。
- 未知 / 尚无事件的 cid 值为 `null`。
- 结果按 cid 独立缓存（复用 `/uma/v1/events` 的 LRU，TTL 30s），多请求集合部分重叠时复用率高。

**示例**:
```bash
curl -sS -X POST "http://<host>/uma/v1/events/batch" \
  -H "Content-Type: application/json" \
  -d '{"condition_ids":["0x0d71...83eb","0xd7aa...d4d9"]}'
```

**错误**:
- 400：body 格式错误 / `condition_ids` 为空 / 超过 50 条。

### GET /healthz

| 字段 | 说明 |
|------|------|
| status | `ok` 或 `degraded`；任一条件满足即 degraded：lag > 100、市场映射等待 >10s、映射冲突数 >0 |
| syncer_lag_blocks | 同步落后的区块数 |
| last_checkpoint_block | 最后持久化的区块号 |
| latest_seen_block | 最新观察到的链头区块号 |
| pipeline_queue_depth | 等待实时处理的事件数 |
| high_queue_depth / normal_queue_depth | proposed/disputed 高优先级队列与普通生命周期队列的当前深度 |
| max_high_queue_depth / max_normal_queue_depth | 启动以来两类队列的最大深度 |
| pipeline_processing | 当前正在处理的事件数 |
| last_event_ingest_at_ms | 最近从上游收到事件的 Unix 毫秒时间 |
| last_event_broadcast_at_ms | 最近完成 WS 广播的 Unix 毫秒时间 |
| last_processing_ms / max_processing_ms | 最近/启动以来最大 worker 处理耗时（毫秒） |
| last_broadcast_delay_ms / max_broadcast_delay_ms | 最近/启动以来最大“上游接收至广播”耗时（毫秒） |
| last_high_queue_wait_ms / max_high_queue_wait_ms | 最近/启动以来最大高优先级事件排队耗时（毫秒） |
| last_normal_queue_wait_ms / max_normal_queue_wait_ms | 最近/启动以来最大普通事件排队耗时（毫秒） |
| last_mapping_ms / max_mapping_ms | 最近/启动以来最大 init 映射维护耗时（毫秒） |
| market_mapping_count | 已加载的 market_id → condition_id 映射数 |
| market_sync_pending | 正在等待 condition_id 的实时事件数 |
| market_sync_oldest_wait_ms | 最老实时映射等待时长（毫秒） |
| market_sync_conflicts | Gamma 与本地不可变映射冲突数 |

指标口径：

- `last_*` 表示最近一次观测值；`max_*` 表示本次服务进程启动以来最大值，服务重启后清零。
- `last_processing_ms` / `max_processing_ms` 是 worker 自身处理耗时，不包含高优先级事件为了保持 WSS 顺序而等待更早高优先级事件完成的时间。
- `last_broadcast_delay_ms` / `max_broadcast_delay_ms` 从服务收到上游事件开始，计到事件进入内存广播分发为止，不包含服务到客户端的网络传输时间。
- `high_queue_wait` / `normal_queue_wait` 是事件等待 worker 的时间，不是 WSS 网络延迟。

---

## WebSocket API

连接后服务端单向推送业务消息，客户端无需发送业务数据，但必须持续读取连接并正确处理 Ping/Pong 控制帧。每次推送一条事件 JSON 对象（结构与列表接口的 `data` 数组元素一致）。

### GET /uma/v1/ws/proposed

实时推送新的 propose 事件。

### GET /uma/v1/ws/disputed

实时推送新的 dispute 事件。

`proposed` / `disputed` 的 WebSocket 消息保证 `condition_id` 非空。服务优先读取内存和 SQLite 的持久化市场映射；首次遇到且 Gamma 映射尚未就绪的新市场会持久化到待补发队列，不阻塞其他实时事件。映射补齐后该事件以 `source=delayed_replay` 补发。

处理优先级与顺序：

- proposed/disputed 使用高优先级队列，可越过尚未开始处理的 initialized/resolved/settle 等普通事件。
- 高优先级队列无法中断已经开始执行的普通事件，因此短时间内仍可能等待 worker 释放。
- proposed/disputed 按处理完成顺序立即广播，不保证全局到达顺序。消费者应使用 `(transaction_hash, log_index)` 去重，并按 `block_number/log_index` 或 `cursor_id` 重建链上顺序。
- condition_id 暂缺的事件不会广播空值；服务会持久化后异步补齐并补发。服务在补发后、删除待补发记录前崩溃时可能产生重复消息，因此消费者必须去重。
- checkpoint 仍按全部事件的原始接收顺序推进，与低延迟 WSS 广播分开维护。

WebSocket 消息还包含以下仅用于延迟诊断的字段（HTTP 历史查询不保证提供）：
- `source`: `realtime`、`backfill` 或 `delayed_replay`。
- `upstream_received_at_ms`: 服务从上游 WSS 收到实时事件的 Unix 毫秒时间；补拉事件不提供。
- `broadcast_at_ms`: 服务针对当前下游连接调用 WebSocket 写入前的 Unix 毫秒时间；不代表客户端已经收到。

**注意事项**:
- 每个客户端的服务端缓冲区大小为 100 条。如果客户端消费过慢导致缓冲满，服务端会主动断开该连接，客户端应通过 HTTP 补拉后重连。
- 内存副本未就绪时连接会被拒绝（503）。
- 连接断开后需要客户端自行重连。建议实现指数退避重连（初始 1s，最大 30s）。
- WebSocket 主要推送实时新事件；服务启动、断线恢复或关闭启动缺口期间，也可能推送最近补拉且尚未入库的事件，此时 `source=backfill`。
- 重连后客户端仍应通过 HTTP 使用持久化 cursor 补齐断线窗口，并与 WSS 消息按事件唯一键去重。
- 服务端默认每 25 秒发送 Ping，读取超时窗口为 35 秒（25 秒间隔 + 10 秒宽限）。常见 WebSocket 库会自动回复 Pong，但客户端必须保持读取循环运行。
- 仅当服务配置 `WS_HEARTBEAT_ENABLE=0` 时，服务端 Ping/Pong 心跳关闭。

---

## 客户端最佳实践

### 推荐的调用模式

```
1. 建立 WebSocket 连接接收实时事件
2. 定期通过 HTTP 列表接口轮询（兜底，防止 WS 丢消息）
3. 用 cursor 分页遍历，直到 next_cursor 为空
4. 持久化 next_cursor，下次启动直接传入继续消费
5. 将 WSS 与 HTTP 事件按 `(event_type, transaction_hash, log_index)` 幂等去重
```

### 超时设置建议

| 场景 | 建议超时 |
|------|---------|
| HTTP 列表接口 | 5-10s（服务端内存查询通常 <100ms） |
| `/proposed/latest` | 10-15s（依赖 Gamma API，可能较慢） |
| WebSocket 心跳 | 保持持续读取；服务端默认每 25s Ping，并在约 35s 无有效 Pong 时断开 |

### 重试策略

```
遇到 429: 等待 2-5s 后重试
遇到 503: 等待 1-3s 后重试（服务端并发过高）
遇到 5xx: 指数退避，最大 30s
连续失败 3 次以上: 检查 /healthz 确认服务状态
```

---

## 事件类型参考

| event_type | 含义 | price 字段 |
|------------|------|-----------|
| init | 问题初始化 | 无 |
| request | 请求报价 | 无 |
| propose | 提案报价 | 有（缩放后的百分比值） |
| dispute | 争议报价 | 有 |
| resolved | 问题解决 | 有 |
| settle | 最终结算 | 有 |

## 数据字段说明

| 字段 | 类型 | 说明 |
|------|------|------|
| id | number | 自增主键（信息性） |
| cursor_id | number | 游标 ID（timestamp*1000+seq），用于分页 |
| event_type | string | 见上表 |
| transaction_hash | string | 交易哈希（0x 前缀） |
| log_index | number | 区块内日志索引 |
| block_number | number | 区块号 |
| timestamp | number | Unix 时间戳（秒） |
| time_utc8 | string | UTC+8 格式化时间（`2006-01-02 15:04:05`） |
| condition_id | string | Polymarket condition ID（0x 前缀哈希），可能为空 |
| market_id | string | Polymarket market ID，可能为空 |
| price | string | 缩放后的价格字符串，无值时为空字符串 |
| question_id | string | UMA question ID；主要在 init/resolved 事件中提供，其他事件可能为空 |
| source | string | 仅 WS 诊断字段：`realtime` 或 `backfill` |
| upstream_received_at_ms | number | 仅 realtime WS：服务收到上游 WSS 事件的 Unix 毫秒时间 |
| broadcast_at_ms | number | 仅 WS：服务开始向当前下游连接写入消息的 Unix 毫秒时间 |

> HTTP 历史事件的 `condition_id` 可能为空；`/ws/proposed` 与 `/ws/disputed` 成功推送的消息保证 `condition_id` 非空。
